<?xml version="1.0" encoding="utf-8"?>
<svg version="1.1" id="bm" xmlns="http://www.w3.org/2000/svg" xmlns:xlink="http://www.w3.org/1999/xlink" width="18px" height="30px" x="0px" y="0px" viewBox="0 0 18px 30px" style="enable-background:new 0 0 18px 30px;" xml:space="preserve">
<style type="text/css">
	.bm {
    fill: #FFFFFF;
    stroke: #000000;
    stroke-width: 3;
    stroke-linecap: round;
    stroke-linejoin: round;
    stroke-miterlimit: 10;
  }
</style>
<polygon class="bm" points="2,2 16,2 16,24 9,13 2,24 "/>
</svg>
